Review Data Cleaning and PCA Modeling
…
review <- review |> 
  mutate(
    # Impute missing product attributes with empty strings
    product_attributes = ifelse(is.na(product_attributes), "", product_attributes),
  )

review <- review |>
  filter(if_all(everything(), ~!is.na(.)))

View the data. Some variables are reviewer-level (they have the same value across all reviewer-specific observations) and some are review-level.

review |>
  arrange(user_id)

# A tibble: 6,990,247 × 22
   review_id     user_id business_id stars text  date                active_days
   <chr>         <chr>   <chr>       <dbl> <chr> <dttm>                    <dbl>
 1 rJ3CASyRfG-7… ---1lK… f19eLfhXqR…     5 "I h… 2018-12-19 22:26:22           1
 2 xJuVVh0wspQl… ---2Pm… hKameFsaXh…     5 "No … 2014-10-28 14:38:58        2377
 3 hdtWMFs_rFCD… ---2Pm… hKameFsaXh…     5 "Thi… 2014-07-10 04:15:23        2377
 4 LBxTq5kq_Eea… ---2Pm… KP5OncF2jh…     5 "Wha… 2015-06-27 23:38:13        2377
 5 --C3ehBCy19v… ---2Pm… igC3UWYb9R…     5 "Gre… 2013-04-03 19:06:00        2377
 6 Plgeha6t05uC… ---2Pm… RwgohauKm5…     5 "Gre… 2014-11-08 13:57:23        2377
 7 qRJ5SbFpofSw… ---2Pm… ZvI9Ytqx_S…     5 "I m… 2014-07-24 03:11:30        2377
 8 wXZD9m3KDCjG… ---2Pm… aOz57yKwap…     5 "Thi… 2018-11-10 02:27:23        2377
 9 PtiOktOk5COH… ---2Pm… eR7ieJD12P…     5 "Gre… 2012-11-02 00:30:24        2377
10 oPJZvPTykI8j… ---2Pm… hTA0eCoMdA…     5 "Wha… 2016-08-21 18:28:20        2377
# ℹ 6,990,237 more rows
# ℹ 15 more variables: review_count <dbl>, review_frequency <dbl>,
#   review_length <dbl>, product_attributes <chr>, sentiment <chr>,
#   sentiment_score <dbl>, useful_user <dbl>, funny_user <dbl>,
#   cool_user <dbl>, useful_review <dbl>, funny_review <dbl>,
#   cool_review <dbl>, star_rating_variance <dbl>, account_age_days <dbl>,
#   average_stars <dbl>
…
What do some of the people look like at either end of this distribution?

# add trust score variable to user level data
review_user <- review_user |>
  mutate(trust_scores = trust_scores)

Top 5 trustworthy users.

review_user |>
  slice_max(trust_scores, n=5)

# A tibble: 306 × 17
   user_id      active_days review_count review_frequency time_between_reviews…¹
   <chr>              <dbl>        <dbl>            <dbl>                  <dbl>
 1 Hi10sGSZNxQ…        4033        17473           0.0759                  3940.
 2 Hi10sGSZNxQ…        4033        17473           0.0759                  3940.
 3 Hi10sGSZNxQ…        4033        17473           0.0759                  3940.
 4 Hi10sGSZNxQ…        4033        17473           0.0759                  3940.
 5 Hi10sGSZNxQ…        4033        17473           0.0759                  3940.
 6 Hi10sGSZNxQ…        4033        17473           0.0759                  3940.
 7 Hi10sGSZNxQ…        4033        17473           0.0759                  3940.
 8 Hi10sGSZNxQ…        4033        17473           0.0759                  3940.
 9 Hi10sGSZNxQ…        4033        17473           0.0759                  3940.
10 Hi10sGSZNxQ…        4033        17473           0.0759                  3940.
# ℹ 296 more rows
# ℹ abbreviated name: ¹​time_between_reviews_variance
# ℹ 12 more variables: review_burst_count <int>, useful_user <dbl>,
#   funny_user <dbl>, cool_user <dbl>, star_rating_variance <dbl>,
#   extreme_rating_proportion <dbl>, avg_review_length <dbl>,
#   review_length_variance <dbl>, avg_sentiment <dbl>, account_age_days <dbl>,
#   average_stars <dbl>, trust_scores <dbl>
…
